;
"Umsaetze ";"Zeitraum: 30 Tage";
"Neuer Kontostand";"1.193,02 EUR";

"Buchungstag";"Wertstellung (Valuta)";"Vorgang";"Buchungstext";"Umsatz in EUR";
"offen";"--";;" Kto/IBAN: 977658597000 Buchungstext: SUMME MONATSABRECHNUNG VISA  ";"-87,24";
"31.03.2020";"31.03.2020";"Lastschrift / Belastung";" Auftraggeber: KAUFLANDBuchungstext: Kaufland";"-7,87";
"30.03.2020";"30.03.2020";"Lastschrift / Belastung";" Auftraggeber: KAUFLANDBuchungstext: Kaufland";"-39,36";
"25.03.2020";"25.03.2020";"Lastschrift / Belastung";" Auftraggeber: KAUFLANDBuchungstext: Kaufland";"-36,17";
"23.03.2020";"23.03.2020";"Lastschrift / Belastung";" Auftraggeber: DANKE, IHR LIDLBuchungstext: DANKE, IHR LIDL";"-37,14";
"17.03.2020";"17.03.2020";"Gutschrift";" Auftraggeber: FRESSNAPF Buchungstext: Fressnapf";"459,96";

"Alter Kontostand";"855,78 EUR";

